,Distance,Precision,Recall,F1,Accuracy,Precision(CV=10),Recall(CV=10),F1(CV=10),Accuracy(CV=10)
Unigram,1000,0.4412848867825171,0.4412848867825171,0.4412848867825171,0.4412848867825171,0.8016894117988249,0.7948819608387724,0.7929383235130386,0.7948819608387724
,3000,0.3828330700368615,0.3828330700368615,0.3828330700368615,0.3828330700368615,0.7907855534633684,0.7809304263296765,0.7781297814298613,0.7809304263296765
Bigram,1000,0.40363349131121645,0.40363349131121645,0.40363349131121645,0.40363349131121645,0.7920293003861002,0.785398555756145,0.7830842953261561,0.785398555756145
,3000,0.38730911005792523,0.38730911005792523,0.38730911005792523,0.38730911005792523,0.7734360133346341,0.7640799888904318,0.7607380751062679,0.7640799888904318
Trigram,1000,0.38941548183254343,0.38941548183254343,0.38941548183254343,0.38941548183254343,0.7903540722131113,0.7835578391890016,0.781362801027364,0.7835578391890016
,3000,0.39915745129015273,0.39915745129015273,0.3991574512901528,0.39915745129015273,0.7728752510522494,0.7632905152062213,0.7597664799107409,0.7632905152062213
Four-gram,1000,0.43601895734597157,0.43601895734597157,0.43601895734597157,0.43601895734597157,0.7912679653200974,0.7840820719344536,0.7815942777057134,0.7840820719344536
,3000,0.3730911005792522,0.3730911005792522,0.3730911005792522,0.3730911005792522,0.7730146383126035,0.7643410637411471,0.7606454818512122,0.7643410637411471
